<?xml version="1.0" encoding="UTF-8"?>
<svg width="268px" height="86px" viewBox="0 0 268 86" version="1.1" xmlns="http://www.w3.org/2000/svg" xmlns:xlink="http://www.w3.org/1999/xlink">
    <!-- Generator: Sketch 63.1 (92452) - https://sketch.com -->
    <title>Fill 1</title>
    <desc>Created with Sketch.</desc>
    <g id="Screens" stroke="none" stroke-width="1" fill="none" fill-rule="evenodd">
        <g id="0.0.1_Login_oney" transform="translate(-151.000000, -149.000000)" fill="#7FB641">
            <path d="M184.52607,149 C165.724832,149 151,163.70323 151,182.49646 C151,201.275529 165.724832,216 184.52607,216 C203.282278,216 218,201.275529 218,182.49646 C218,163.70323 203.282278,149 184.52607,149 L184.52607,149 Z M184.515287,204 C172.654597,204 163,194.337384 163,182.012956 C163,169.683816 172.654597,160 184.515287,160 C196.296013,160 206,169.683816 206,182.012956 C206,194.337384 196.296013,204 184.515287,204 L184.515287,204 Z M419,149 L393.564736,211.125901 L383.805295,235 L371.264166,235 L380.995367,211.140036 L355,149 L368.254201,149 L387.285935,195.713984 L406.357676,149 L419,149 Z M254.023717,160.093419 C242.179303,160.093419 236.162226,166.418677 236.162226,178.936874 L236.162226,216 L224,216 L224,178.067358 C224.113843,171.413669 225.297336,166.711666 228.020081,162.297926 C231.245632,157.340739 238.894458,149 254.023717,149 C269.112657,149 276.787572,157.340739 280.006008,162.297926 C282.705036,166.711666 283.926476,171.413669 284,178.067358 L284,216 L271.847261,216 L271.847261,178.936874 C271.847261,166.418677 265.863388,160.093419 254.023717,160.093419 L254.023717,160.093419 Z M304,176 C305.59098,167.907856 313.235614,160 323.51633,160 C333.785381,160 341.430016,167.907856 343,176 L304,176 Z M356,181.634835 C355.891205,163.637979 341.374231,149 323.607612,149 C305.332496,149 291,163.687688 291,182.43964 C291,191.242784 294.370265,199.603286 300.427282,205.982547 C306.593094,212.439922 314.731398,216 323.385293,216 C333.264309,216 347.109595,211.249285 353.691664,197.780639 C353.83357,197.494224 353.861951,197.349832 353.861951,197.349832 L340.61267,197.349832 L340.534621,197.442148 C336.977513,201.705246 330.260634,204.58124 323.865408,204.58124 C315.741295,204.58124 305.997089,199.222187 303.331623,187.116976 L355.742204,187.116976 C355.855729,185.867161 356,183.362798 356,181.634835 L356,181.634835 Z" id="Fill-1"></path>
        </g>
    </g>
</svg>