@startuml FDetailScreen

' -------- Provider -------- '
class Redux << (P,red) Provider >> {
    ~store
}

' -------- App & Jorney -------- '
class App << (P,DarkGray) >> {}
App o-- Jorney

class Jorney << (P,DarkGray) >> {}
Jorney o-- Router

class Router << (P,DarkGray) react-router-dom >> {}

Router o-- CreateFDScreen
Redux <..> CreateFDScreen
Router o-- FDAprovalScreen
Redux <..> FDAprovalScreen
Router o-- FDDetailScreen
Redux <..> FDDetailScreen
Router o-- FDListScreen
Redux <..> FDListScreen
Router o-- FDRejectionScreen
Redux <..> FDRejectionScreen
Redux <..> Timeline
Redux <..> TimelineRender
Redux <..> Attachment
Redux <..> Footer

' -------- Containers -------- '
class CreateFDScreen << (P,orange) Container>> {
    ~store
    ==state==
    ==props==
}

class FDAprovalScreen << (P,orange) Container>> {
    ~store
    ==state==
    ==props==
}

class FDDetailScreen << (P,orange) Container>> {
    ~store
    ==state==
    ==props==
}
FDDetailScreen o-- FDDetailScreenRender

class FDListScreen << (P,orange) Container>> {
    ~store
    ==state==
    ==props==
}

class FDRejectionScreen << (P,orange) Container>> {
    ~store
    ==state==
    ==props==
}

' -------- Components -------- '
class FDDetailScreenRender << (P,blue) Component>> {
    ==props==
}
FDDetailScreenRender o-- FDTableItems
FDDetailScreenRender o-- DetailsFields
FDDetailScreenRender o-- FDTotalTableItems
FDDetailScreenRender o-- Timeline
FDDetailScreenRender o-- Footer
FDDetailScreenRender o-- ConfirmationDialog

class FDTableItems << (P,blue) Component>> {
    ==props==
}
FDTableItems o-- CustomTable
FDTableItems o-- FDTableItemsHeaders

class CustomTable << (P,blue) Component>> {
    ==props==
}

class FDTableItemsHeaders << (P,blue) Component>> {
    ==props==
}

class DetailsFields << (P,blue) Component>> {
    ==props==
}
DetailsFields o-- Countdown

class Countdown << (P,blue) Component>> {
    ==props==
}

class FDTotalTableItems << (P,blue) Component>> {
    ==props==
}

class Timeline << (P,blue) Component>> {
    ~store
    ==state==
    ==props==
}
Timeline o-- TimelineRender

class TimelineRender << (P,blue) Component>> {
    ~store
    ==props==
}
TimelineRender o-- ActivityTimeline
TimelineRender o-- AttachmentList
TimelineRender o-- FileInput

class ActivityTimeline << (P,blue) Component>> {
    ==props==
}

class AttachmentList << (P,blue) Component>> {
    ==props==
}
AttachmentList o-- AttachmentStepList

class AttachmentStepList  << (P,blue) Component>> {
    ==props==
}
AttachmentStepList o-- Attachment

class Attachment << (P,blue) Component>> {
    ~store
    ==state==
    ==props==
}
Attachment o-- AttachmentRender

class AttachmentRender << (P,blue) Component>> {
    ==props==
}

class FileInput << (P,blue) Component>> {
    ==props==
}

class Footer << (P,blue) Component>> {
    ~store
    ==state==
    ==props==
}
Footer o-- FooterRender

class FooterRender << (P,blue) Component>> {
    ==props==
}
FooterRender o-- ConfirmationDialog

class ConfirmationDialog  << (P,blue) Component>> {
    ==props==
}


@enduml