@startuml FDListScreen

' -------- Provider -------- '
class Redux << (P,red) Provider >> {
    ~store
}

' -------- App & Jorney & Router -------- '
class App << (P,DarkGray) >> {}
App o-- Jorney

class Jorney << (P,DarkGray) >> {}
Jorney o-- Router

class Router << (P,DarkGray) react-router-dom >> {}

Router o-- CreateFDScreen
Redux <..> CreateFDScreen
Router o-- FDAprovalScreen
Redux <..> FDAprovalScreen
Router o-- FDDetailScreen
Redux <..> FDDetailScreen
Router o-- FDListScreen
Redux <..> FDListScreen
Router o-- FDRejectionScreen
Redux <..> FDRejectionScreen
Redux <..> FilterList

' -------- Containers -------- '
class CreateFDScreen << (P,orange) Container>> {
    ~store
    ==state==
    ==props==
}

class FDAprovalScreen << (P,orange) Container>> {
    ~store
    ==state==
    ==props==
}

class FDDetailScreen << (P,orange) Container>> {
    ~store
    ==state==
    ==props==
}

class FDListScreen << (P,orange) Container>> {
    ~store
    ==state==
    ==props==
}
FDListScreen o-- FDListScreenRender

class FDRejectionScreen << (P,orange) Container>> {
    ~store
    ==state==
    ==props==
}

' -------- Components -------- '
class FDListScreenRender << (P,blue) Component>> {
    ==props==
}
FDListScreenRender o-- HeaderBar
FDListScreenRender o-- FilterList
FDListScreenRender o-- CustomTable
FDListScreenRender o-- Collapse
FDListScreenRender o-- Countdown

class HeaderBar << (P,blue) Component>> {
    ==state==
    ==props==
}
HeaderBar o-- HeaderRender

class HeaderRender << (P,blue) Component>> {
    ==props==
}

class FilterList << (P,blue) Component>> {
    ~store
    ==state==
    ==props==
}
FilterList o-- FilterListRender

class FilterListRender << (P,blue) Component>> {
    ==props==
}

class CustomTable << (P,blue) Component>> {
    ==props==
}

class Collapse << (P,blue) Component>> {
    ==props==
}

class Countdown << (P,blue) Component>> {
    ==props==
}
@enduml