{
  "files": {
    "main.js": "/content/oney/purchaseorder/v3/journeys/omni-journey-purchase-order/modules/static/js/main.239aab9f.chunk.js",
    "main.js.map": "/content/oney/purchaseorder/v3/journeys/omni-journey-purchase-order/modules/static/js/main.239aab9f.chunk.js.map",
    "runtime-main.js": "/content/oney/purchaseorder/v3/journeys/omni-journey-purchase-order/modules/static/js/runtime-main.935441f8.js",
    "runtime-main.js.map": "/content/oney/purchaseorder/v3/journeys/omni-journey-purchase-order/modules/static/js/runtime-main.935441f8.js.map",
    "static/js/2.833ceacb.chunk.js": "/content/oney/purchaseorder/v3/journeys/omni-journey-purchase-order/modules/static/js/2.833ceacb.chunk.js",
    "static/js/2.833ceacb.chunk.js.map": "/content/oney/purchaseorder/v3/journeys/omni-journey-purchase-order/modules/static/js/2.833ceacb.chunk.js.map",
    "index.html": "/content/oney/purchaseorder/v3/journeys/omni-journey-purchase-order/modules/index.html",
    "precache-manifest.f4e3f25e3b750988bfd46888d2bedc23.js": "/content/oney/purchaseorder/v3/journeys/omni-journey-purchase-order/modules/precache-manifest.f4e3f25e3b750988bfd46888d2bedc23.js",
    "service-worker.js": "/content/oney/purchaseorder/v3/journeys/omni-journey-purchase-order/modules/service-worker.js"
  },
  "entrypoints": [
    "static/js/runtime-main.935441f8.js",
    "static/js/2.833ceacb.chunk.js",
    "static/js/main.239aab9f.chunk.js"
  ]
}