{
  "threesixtyConfigs": {
    "url": "/content/oney/foundation/v3/threesixties/omni-threesixty-wizzio/modules/",
    "allowMultipleNewInteractionsWithSameCustomer": false,
    "singleSearchResultAutomaticContext": false,
    "contentVersion": "v3",
    "openOnStart": false,
    "collapsePanel": "vertical",
    "collapsedPanelSize": "320px",
    "closeIcon": "icon-close",
    "interactionsLimit": 5
  },
  "headerGenericExtensions": {},
  "defaultType": "light",
  "defaultDirection": "ltr",
  "menuLayout": "MENU_LAYOUT_GRID",
  "showUserMenuByDefault": false,
  "saveTimeout": 5000,
  "globalSearchPatterns": {
    "ProcessesNameMatchMinLength": 3,
    "ProcessesActionMatchMinLength": 1
  },
  "menuFavourites": {
    "selectedIcon": "icon-wishlist-full",
    "unselectedIcon": "icon-wishlist-full"
  },
  "journeys": [
    {
      "id": 1,
      "title": "Dashboard",
      "version": "1.0",
      "type": "unique",
      "icon": "icon-dashboard",
      "contentVersion": "v3",
      "i18NLabel": "dashboard_customer",
      "notificationsAutoTimeoutInms": 3000,
      "journeyUrl": "/content/oney/foundation/v3/journeys/omni-journey-dashboard/modules/",
      "ignoreUserPrefs": true,
      "editable": {
        "draggable": true,
        "resizable": false,
        "removable": true
      },
      "isHomePage": "true",
      "subHeaderContent": {
        "components": ["dashboardWidgets"],
        "style": "primary"
      },
      "layoutSettings": {
        "breakpoints": {
          "lg": 1300,
          "md": 1100,
          "sm": 900,
          "xs": 700,
          "xxs": 400
        },
        "cols": {
          "lg": 8,
          "md": 6,
          "sm": 4,
          "xs": 2,
          "xxs": 1
        },
        "rowHeight": 180
      },
      "widgets": [
        {
          "id": 1,
          "x": 0,
          "y": 0,
          "w": 7,
          "h": 4
        },
        {
          "id": 2,
          "x": 8,
          "y": 1,
          "w": 1,
          "h": 1
        },
        {
          "id": 3,
          "x": 8,
          "y": 2,
          "w": 1,
          "h": 1
        }
      ]
    },
    {
      "id": 2,
      "title": "Lista de OC",
      "version": "1.0",
      "i18NLabel": "purchase_order_list",
      "entitlement": "OPEN_BUSINESS",
      "icon": "icon-balancetransaction",
      "journeyUrl": "/content/oney/purchaseorder/v3/journeys/omni-journey-purchase-order/modules/",
      "subHeaderContent": {
        "style": "secondary"
      },
      "globalSearchSpecs": [
        {
          "id": 1,
          "filterPattern": "^9[1,2,3,6][0-9]{7}$",
          "actionJourney": "charge_prepaid",
          "i18NsearchDescription": "vt_tc_gs_charges",
          "icon": "icon-mobile"
        }
      ]
    },
    {
      "id": 3,
      "title": "Journey Designer",
      "version": "1.0",
      "icon": "icon-logo-journeydesigner",
      "i18NLabel": "journey_designer",
      "entitlement": "UFE_JOURNEY_DESIGNER",
      "journeyUrl": "/content/oney/journeydesigner/v2/journeys/omni-journey-journeydesigner/modules/",
      "availableForContextTypes": [""],
      "subHeaderContent": {
        "style": "secondary"
      },
      "lock_timeout": 300000,
      "notification_timeout": 3000,
      "shouldBeNotifiedBeforeUnload": true,
      "journeyListRecordsLimit": 10,
      "journeyVersionFreeForm": false
    },
    {
      "id": 4,
      "title": "Ui Demo",
      "version": "1.0",
      "type": "context_unique",
      "contentVersion": "v3",
      "icon": "icon-generate",
      "i18NLabel": "ui_lib",
      "entitlement": "OPEN_SAMPLE",
      "journeyUrl": "/content/oney/foundation/v3/journeys/ui-demo-journey/modules/",
      "subHeaderContent": {
        "style": "secondary"
      }
    },
    {
      "id": 5,
      "title": "UAM",
      "version": "1.0",
      "i18NLabel": "uam_label",
      "type": "context_unique",
      "entitlement": "UFE_JOURNEY_UAM",
      "icon": "icon-UAM_big",
      "listIcon": "icon-UAM_small",
      "notificationsAutoTimeoutInms": 3000,
      "numberOfRecordsPerTablePage": 8,
      "uamUserJourneyId": 6,
      "uamRolesJourneyId": 7,
      "journeyUrl": "/content/oney/operationconsole/v3/journeys/omni-journey-uam/modules/",
      "subHeaderContent": {
        "style": "secondary"
      }
    },
    {
      "id": 6,
      "title": "UAM USER",
      "version": "1.0",
      "i18NLabel": "uam_user",
      "icon": "icon-balancetransaction",
      "notificationsAutoTimeoutInms": 3000,
      "numberOfRecordsPerTablePage": 10,
      "journeyUrl": "/content/oney/operationconsole/v3/journeys/omni-journey-uam-user/modules/",
      "hideDomain": false,
      "requiredFields": {
        "firstName": true,
        "lastName": false,
        "email": false,
        "status": false
      },
      "subHeaderContent": {
        "style": "secondary"
      },
      "globalSearchSpecs": [
        {
          "id": 1,
          "filterPattern": "^[0-9]*$",
          "actionJourney": "id",
          "i18NsearchDescription": "uam_user_id_view_detail",
          "icon": "icon-balancetransaction"
        },
        {
          "id": 2,
          "filterPattern": "^\\w+([\\.-]?\\w+)*@\\w+([\\.-]?\\w+)*(\\.\\w{2,3})+$",
          "actionJourney": "email",
          "i18NsearchDescription": "uam_user_email_view_detail",
          "icon": "icon-balancetransaction"
        },
        {
          "id": 3,
          "filterPattern": "^^[a-zA-Z0-9_\\-+_@&$#%\\s]*$",
          "actionJourney": "name",
          "i18NsearchDescription": "uam_user_name_view_detail",
          "icon": "icon-balancetransaction"
        }
      ]
    },
    {
      "id": 7,
      "title": "UAM ROLES",
      "version": "1.0",
      "categoryId": 3,
      "i18NLabel": "uam_roles",
      "icon": "icon-balancetransaction",
      "notificationsAutoTimeoutInms": 3000,
      "numberOfRecordsPerTablePage": 10,
      "journeyUrl": "/content/oney/operationconsole/v3/journeys/omni-journey-uam-roles/modules/",
      "requiredFields": {
        "description": false
      },
      "subHeaderContent": {
        "style": "secondary"
      },
      "globalSearchSpecs": [
        {
          "id": 1,
          "filterPattern": "^[0-9]*$",
          "actionJourney": "id",
          "i18NsearchDescription": "uam_roles_id_view_detail",
          "icon": "icon-balancetransaction"
        },
        {
          "id": 2,
          "filterPattern": "^[a-zA-Z0-9_\\-+_@&$#%\\s]*$",
          "actionJourney": "name",
          "i18NsearchDescription": "uam_roles_name_view_detail",
          "icon": "icon-balancetransaction"
        }
      ]
    },
    {
      "id": 8,
      "title": "Karaf",
      "version": "1.0",
      "i18NLabel": "karaf",
      "type": "context_unique",
      "icon": "icon-repair",
      "journeyUrl": "/system/console/",
      "subHeaderContent": {
        "style": "secondary"
      }
    },
    {
      "id": 9,
      "title": "Sling",
      "version": "1.0",
      "i18NLabel": "sling",
      "type": "context_unique",
      "icon": "icon-archive",
      "journeyUrl": "/bin/browser.html/",
      "subHeaderContent": {
        "style": "secondary"
      }
    },
    {
      "id": 10,
      "title": "Log Viewer",
      "version": "1.0",
      "type": "context_unique",
      "contentVersion": "v1",
      "icon": "icon-LogViewer_big",
      "listIcon": "icon-LogViewer_small",
      "i18NLabel": "logviewer",
      "journeyUrl": "/content/oney/logviewer/v1/journeys/omni-journey-logviewer/modules/",
      "subHeaderContent": {
        "style": "secondary"
      }
    },
    {
      "id": 11,
      "title": "Cache Manager",
      "version": "1.0",
      "type": "context_unique",
      "icon": "icon-cachemanager_big",
      "listIcon": "icon-cachemanager_small",
      "i18NLabel": "cache_manager",
      "journeyUrl": "/content/wizzio/cachemanagerapp/journeys/omni-journey-cache-manager/modules/",
      "subHeaderContent": {
        "style": "secondary"
      }
    },
    {
      "id": 13,
      "title": "Lista de DF",
      "version": "1.0",
      "i18NLabel": "financial_document_list",
      "entitlement": "OPEN_BUSINESS",
      "icon": "icon-balancetransaction",
      "journeyUrl": "/content/oney/financialdocument/v3/journeys/omni-journey-financial-document/modules/",
      "availableForContextTypes": [""],
      "subHeaderContent": {
        "style": "secondary"
      }
    },
    {
      "id": 16,
      "title": "Api Sample",
      "version": "1.0",
      "i18NLabel": "sample",
      "contentVersion": "v3",
      "icon": "icon-balancetransaction",
      "journeyUrl": "content/oney/foundation/v3/journeys/api-sample-journey/modules/",
      "availableForContextTypes": ["", "CUSTOMER", "ACCOUNT", "SERVICE"],
      "subHeaderContent": {
        "components": ["contextLevelSwitcher"],
        "style": "secondary"
      },
      "globalSearchSpecs": [
        {
          "id": 1,
          "filterPattern": "^9[1,2,3,6][0-9]{7}$",
          "actionJourney": "charge_prepaid",
          "i18NsearchDescription": "vt_tc_gs_charges",
          "icon": "icon-mobile"
        }
      ]
    }
  ],
  "categories": [
    {
      "id": 1,
      "name": "Business",
      "i18NLabel": "business_cat",
      "entitlement": "OPEN_BUSINESS",
      "processesOrder": [
        {
          "order": 1,
          "processId": 2
        },
        {
          "order": 2,
          "processId": 13
        }
      ]
    },
    {
      "id": 2,
      "name": "Products",
      "i18NLabel": "fes_products",
      "entitlement": "OPEN_PRODUCTS",
      "processesOrder": []
    },
    {
      "id": 4,
      "name": "Administrative Tools",
      "i18NLabel": "admin_cat",
      "entitlement": "OPEN_ADMIN",
      "processesOrder": [
        {
          "order": 1,
          "processId": 8
        },
        {
          "order": 2,
          "processId": 9
        },
        {
          "order": 3,
          "processId": 10
        },
        {
          "order": 4,
          "processId": 5
        },
        {
          "order": 5,
          "processId": 11
        }
      ]
    },
    {
      "id": 5,
      "name": "Developer",
      "i18NLabel": "developer_cat",
      "entitlement": "OPEN_SAMPLE",
      "processesOrder": [
        {
          "order": 1,
          "processId": 14
        },
        {
          "order": 2,
          "processId": 4
        },
        {
          "order": 4,
          "processId": 16
        }
      ]
    },
    {
      "id": 6,
      "name": "Journey",
      "i18NLabel": "journey_cat",
      "entitlement": "UFE_JOURNEY_DESIGNER",
      "processesOrder": [
        {
          "order": 1,
          "processId": 3
        }
      ]
    }
  ],
  "contexts": [
    {
      "iconId": 1,
      "icon": "user",
      "level": 1,
      "id": 1,
      "title": "Customer",
      "i18NLabel": "subheader_user_label",
      "seachKeys": [
        {
          "field": "nif",
          "filterPattern": "^[1|2|5][0-9]{8}$"
        },
        {
          "field": "contactNumber",
          "filterPattern": "^9[1,2,3,6][0-9]{7}$"
        }
      ],
      "type": "CUSTOMER"
    },
    {
      "iconId": 2,
      "icon": "process",
      "level": 2,
      "id": 2,
      "title": "Account",
      "i18NLabel": "subheader_mobile_label",
      "seachKeys": [
        {
          "field": "accountNumber",
          "filterPattern": "^3[0-9]{8}$"
        }
      ],
      "type": "ACCOUNT"
    },
    {
      "iconId": 3,
      "icon": "mobile",
      "id": 3,
      "level": 3,
      "title": "Process",
      "i18NLabel": "subheader_process_label",
      "seachKeys": [
        {
          "field": "service",
          "filterPattern": "^9[1,2,3,6][0-9]{7}$"
        }
      ],
      "type": "SERVICE"
    }
  ],
  "entitlements": {
    "header": {
      "genericExtensionPoint": "UFE_GENERIC_EXTENSION:SHOW",
      "threesixty": "UFE_360:SHOW",
      "threesixtyTimer": "UFE_360_TIMER:SHOW",
      "globalSearch": "UFE_GLOBAL_SEARCH:SHOW",
      "cti": "UFE_CTI",
      "inline": "UFE_INLINE",
      "userMenu": {
        "privateMode": "UFE_PRIVATE_MODE:SHOW",
        "changeStatus": "UFE_CHANGE_STATUS:SHOW",
        "userSettings": "UFE_USER_SETTINGS:SHOW",
        "direction": "UFE_USER_SETTINGS_DIRECTION:SHOW",
        "themeType": "UFE_USER_SETTINGS_THEME_TYPE:SHOW"
      }
    },
    "subHeader": {
      "menu": "UFE_MENU:SHOW",
      "menuFavourites": "UFE_MENU_FAVOURITES:SHOW",
      "taskSwitcher": "UFE_TASK_SWITCHER:SHOW",
      "dashboardWidgets": {
        "self": "UFE_DASHBOARD_WIDGETS:SHOW",
        "editMode": "UFE_DASHBOARD_WIDGETS_EDIT_MODE:SHOW",
        "addWidget": "UFE_DASHBOARD_WIDGETS_ADD_WIDGET:SHOW"
      },
      "journeyMenu": {
        "journeyList": "UFE_MENU_JOURNEY_LIST:SHOW"
      }
    },
    "notifications": {
      "contextual": "UFE_CONTEXTUAL_NOTIFICATIONS:SHOW",
      "nonContextual": "UFE_NON_CONTEXTUAL_NOTIFICATIONS:SHOW",
      "notificationCenter": "UFE_NOTIFICATIONS_CENTER:SHOW"
    },
    "footer": "UFE_FOOTER:SHOW"
  },
  "widgets": [
    {
      "id": 1,
      "name": "WORKQUEUE-WIDGET",
      "type": "umd",
      "identifier": "Workqueue",
      "info": {
        "i18NTitle": "WIZZIO_TILE_LOAN_TITLE",
        "i18NDescription": "WIZZIO_TILE_LOAN_DESCRIPTION"
      },
      "version": "1.0",
      "defaultSize": {
        "x": 0,
        "y": 0,
        "w": 7,
        "h": 4
      },
      "category": "Business",
      "url": "../../../../v3/widgets/omni-widget-workqueue/workqueuev204.js",
      "thumbnailUrl": "RELATIVE_PATH_TO_WIDGET_THUMBNAIL_IMAGE",
      "initialProps": {
        "journeyi18n": "tile_loan",
        "journeyId": 11,
        "imageURL": "../../../../widgets/omni-widget-tile/assets/images/personalloan.svg"
      },
      "entitlements": "OPEN_BUSINESS"
    },
    {
      "id": 2,
      "name": "ONEY_TILE_PURCHASE_ORDER",
      "type": "umd",
      "identifier": "Tile",
      "info": {
        "i18NTitle": "ONEY_TILE_PURCHASE_ORDER_TITLE",
        "i18NDescription": "ONEY_TILE_PURCHASE_ORDER_DESCRIPTION"
      },
      "version": "1.0",
      "defaultSize": {
        "x": 8,
        "y": 1,
        "w": 1,
        "h": 1
      },
      "category": "Business",
      "url": "../../../../v3/widgets/omni-widget-tile/tile.js",
      "thumbnailUrl": "RELATIVE_PATH_TO_WIDGET_THUMBNAIL_IMAGE",
      "initialProps": {
        "journeyi18n": "purchase_order",
        "journeyId": 2,
        "imageURL": "../../../../v3/widgets/omni-widget-tile/assets/images/OC.png"
      },
      "entitlements": "ONEY_WGT_TILE_PO:SHOW"
    },
    {
      "id": 3,
      "name": "ONEY_TILE_FINANCIAL_DOCUMENT",
      "type": "umd",
      "identifier": "Tile",
      "info": {
        "i18NTitle": "ONEY_TILE_FINANCIAL_DOCUMENT",
        "i18NDescription": "ONEY_TILE_FINANCIAL_DOCUMENT_DESCRIPTION"
      },
      "version": "1.0",
      "defaultSize": {
        "x": 8,
        "y": 2,
        "w": 1,
        "h": 1
      },
      "category": "Business",
      "url": "../../../../v3/widgets/omni-widget-tile/tile.js",
      "thumbnailUrl": "RELATIVE_PATH_TO_WIDGET_THUMBNAIL_IMAGE",
      "initialProps": {
        "journeyi18n": "financial_document",
        "journeyId": 13,
        "imageURL": "../../../../v3/widgets/omni-widget-tile/assets/images/DF.png"
      },
      "entitlements": "ONEY_WGT_TILE_DF:SHOW"
    }
  ],
  "loginCustomFields": [],
  "userInfoFields": {
    "user_detail_main_label": "${firstName} ${lastName}",
    "user_detail_main_position_label": "${username}",
    "user_detail_secondary_label": "${email}"
  },
  "authenticationURL": "",
  "entitlementsURL": "/bin/mvc.do/foundation/v3/eam/entitlement",
  "customAuthentication": {
    "loginPageURL": "/content/oney/foundation/v3/loginpages/oney-login-page/modules/index.html"
  }
}
