{
    "disableOsLanguagePreference": false,
    
    "availableLanguages": [
        {
            "code": "pt-PT",
            "name": "Português",
            "default": true
        }
    ],
    
    "_commented_availableLanguages": [
        {
            "code": "pt-PT",
            "name": "Português",
            "default": false
        },
        {
            "code": "en-US",
            "name": "English (USA)",
            "default": true
        }
    ]
}
