@startuml CreatePOScreen

' -------- Provider -------- '
class Redux << (P,red) Provider >> {
    ~store
}

' -------- App & Jorney -------- '
class App << (P,DarkGray) >> {}
App o-- Jorney

class Jorney << (P,DarkGray) >> {}
Jorney o-- Router

class Router << (P,DarkGray) react-router-dom >> {}

Router o-- CreatePOScreen
Redux <..> CreatePOScreen
Router o-- DetailsPOScreen
Redux <..> DetailsPOScreen
Router o-- POListScreen
Redux <..> POListScreen

' -------- Containers -------- '
class CreatePOScreen << (P,orange) Container>> {
    ~store
    ==state==
    ==props==
}
CreatePOScreen o-- FormPO
CreatePOScreen o-- ConfirmationDialog

class DetailsPOScreen << (P,orange) Container>> {
    ~store
    ==state==
    ==props==
}
class POListScreen << (P,orange) Container>> {
    ~store
    ==state==
    ==props==
}

' -------- Components -------- '

class FormPO << (P,blue) Component>> {
    ==state==
    ==props==
}
FormPO o-- POBasicDataForm
FormPO o-- ItemsTable
FormPO o-- ItemDialog
FormPO o-- ItemForm
FormPO o-- FileChip
FormPO o-- FileDialog

class ConfirmationDialog << (P,blue) Component>> {
    ==props==
}

class POBasicDataForm << (P,blue) Component>> {
    ~store
    ==props==
}
Redux <..> POBasicDataForm
POBasicDataForm o-- FFComponentWrappers

class FFComponentWrappers << (P,blue) Component>> {
    ==props==
}

class ItemsTable << (P,blue) Component>> {
    ==props==
}
ItemsTable o-- ItemTableHeaders
ItemsTable o-- ItemTableRows

class ItemTableHeaders << (P,blue) Component>> {
    ==props==
}

class ItemTableRows << (P,blue) Component>> {
    ==props==
}

class ItemDialog << (P,blue) Component>> {
    ==props==
}

class ItemForm << (P,blue) Component>> {
    ~store
    ==props==
}
Redux <..> ItemForm
ItemForm o-- FFComponentWrappers

class FileChip << (P,blue) Component>> {
    ==props==
}

class FileDialog << (P,blue) Component>> {
    ==state==
    ==props==
}
FileDialog o-- FFComponentWrappers
FileDialog o-- ConfirmationDialog

@enduml